…
**Fonction split()**

La fonction `split()` sépare un data.frame en liste à partir des différents niveaux d'une variable
 

```r
split(df_stat, df_stat$phylum)
```

```{.scroll-300}
## $Actinobacteriota
## # A tibble: 40 × 7
##    Segment_Age Piglet Slaughter_date Segment Age   phylum           abundance
##    <fct>       <fct>  <chr>          <fct>   <fct> <chr>                <dbl>
##  1 Jejunum_D35 14     D3             Jejunum D35   Actinobacteriota     0.115
##  2 Jejunum_D35 23     D5             Jejunum D35   Actinobacteriota     0.109
##  3 Jejunum_D35 5      D1             Jejunum D35   Actinobacteriota     0.142
##  4 Jejunum_D21 9      D2             Jejunum D21   Actinobacteriota     0.136
##  5 Jejunum_D35 24     D5             Jejunum D35   Actinobacteriota     0.145
##  6 Jejunum_D21 20     D4             Jejunum D21   Actinobacteriota     0.120
##  7 Jejunum_D21 27     D6             Jejunum D21   Actinobacteriota     0.203
##  8 Jejunum_D21 26     D6             Jejunum D21   Actinobacteriota     0.178
##  9 Jejunum_D21 18     D4             Jejunum D21   Actinobacteriota     0.149
## 10 Jejunum_D35 7      D1             Jejunum D35   Actinobacteriota     0.125
## # … with 30 more rows
## 
## $Bacteroidota
## # A tibble: 40 × 7
##    Segment_Age Piglet Slaughter_date Segment Age   phylum       abundance
##    <fct>       <fct>  <chr>          <fct>   <fct> <chr>            <dbl>
##  1 Jejunum_D35 14     D3             Jejunum D35   Bacteroidota    0.0966
##  2 Jejunum_D35 23     D5             Jejunum D35   Bacteroidota    0.120 
##  3 Jejunum_D35 5      D1             Jejunum D35   Bacteroidota    0.129 
##  4 Jejunum_D21 9      D2             Jejunum D21   Bacteroidota    0.139 
##  5 Jejunum_D35 24     D5             Jejunum D35   Bacteroidota    0.150 
##  6 Jejunum_D21 20     D4             Jejunum D21   Bacteroidota    0.131 
##  7 Jejunum_D21 27     D6             Jejunum D21   Bacteroidota    0.0855
##  8 Jejunum_D21 26     D6             Jejunum D21   Bacteroidota    0.141 
##  9 Jejunum_D21 18     D4             Jejunum D21   Bacteroidota    0.120 
## 10 Jejunum_D35 7      D1             Jejunum D35   Bacteroidota    0.121 
## # … with 30 more rows
## 
## $Desulfobacterota
## # A tibble: 40 × 7
##    Segment_Age Piglet Slaughter_date Segment Age   phylum           abundance
##    <fct>       <fct>  <chr>          <fct>   <fct> <chr>                <dbl>
##  1 Jejunum_D35 14     D3             Jejunum D35   Desulfobacterota         0
##  2 Jejunum_D35 23     D5             Jejunum D35   Desulfobacterota         0
##  3 Jejunum_D35 5      D1             Jejunum D35   Desulfobacterota         0
##  4 Jejunum_D21 9      D2             Jejunum D21   Desulfobacterota         0
##  5 Jejunum_D35 24     D5             Jejunum D35   Desulfobacterota         0
##  6 Jejunum_D21 20     D4             Jejunum D21   Desulfobacterota         0
##  7 Jejunum_D21 27     D6             Jejunum D21   Desulfobacterota         0
##  8 Jejunum_D21 26     D6             Jejunum D21   Desulfobacterota         0
##  9 Jejunum_D21 18     D4             Jejunum D21   Desulfobacterota         0
## 10 Jejunum_D35 7      D1             Jejunum D35   Desulfobacterota         0
## # … with 30 more rows
## 
## $Firm_bact_ratio
## # A tibble: 40 × 7
##    Segment_Age Piglet Slaughter_date Segment Age   phylum          abundance
##    <fct>       <fct>  <chr>          <fct>   <fct> <chr>               <dbl>
##  1 Jejunum_D35 14     D3             Jejunum D35   Firm_bact_ratio     10.4 
##  2 Jejunum_D35 23     D5             Jejunum D35   Firm_bact_ratio      8.31
##  3 Jejunum_D35 5      D1             Jejunum D35   Firm_bact_ratio      7.73
##  4 Jejunum_D21 9      D2             Jejunum D21   Firm_bact_ratio      7.20
##  5 Jejunum_D35 24     D5             Jejunum D35   Firm_bact_ratio      6.65
##  6 Jejunum_D21 20     D4             Jejunum D21   Firm_bact_ratio      7.63
##  7 Jejunum_D21 27     D6             Jejunum D21   Firm_bact_ratio     11.7 
##  8 Jejunum_D21 26     D6             Jejunum D21   Firm_bact_ratio      7.10
##  9 Jejunum_D21 18     D4             Jejunum D21   Firm_bact_ratio      8.35
## 10 Jejunum_D35 7      D1             Jejunum D35   Firm_bact_ratio      8.29
## # … with 30 more rows
## 
## $Firmicutes
## # A tibble: 40 × 7
##    Segment_Age Piglet Slaughter_date Segment Age   phylum     abundance
##    <fct>       <fct>  <chr>          <fct>   <fct> <chr>          <dbl>
##  1 Jejunum_D35 14     D3             Jejunum D35   Firmicutes     1.00 
##  2 Jejunum_D35 23     D5             Jejunum D35   Firmicutes     1.00 
##  3 Jejunum_D35 5      D1             Jejunum D35   Firmicutes     1.00 
##  4 Jejunum_D21 9      D2             Jejunum D21   Firmicutes     1.00 
##  5 Jejunum_D35 24     D5             Jejunum D35   Firmicutes     1.00 
##  6 Jejunum_D21 20     D4             Jejunum D21   Firmicutes     0.999
##  7 Jejunum_D21 27     D6             Jejunum D21   Firmicutes     0.999
##  8 Jejunum_D21 26     D6             Jejunum D21   Firmicutes     0.999
##  9 Jejunum_D21 18     D4             Jejunum D21   Firmicutes     0.999
## 10 Jejunum_D35 7      D1             Jejunum D35   Firmicutes     0.999
## # … with 30 more rows
## 
## $Fusobacteriota
## # A tibble: 40 × 7
##    Segment_Age Piglet Slaughter_date Segment Age   phylum         abundance
##    <fct>       <fct>  <chr>          <fct>   <fct> <chr>              <dbl>
##  1 Jejunum_D35 14     D3             Jejunum D35   Fusobacteriota    0     
##  2 Jejunum_D35 23     D5             Jejunum D35   Fusobacteriota    0     
##  3 Jejunum_D35 5      D1             Jejunum D35   Fusobacteriota    0     
##  4 Jejunum_D21 9      D2             Jejunum D21   Fusobacteriota    0     
##  5 Jejunum_D35 24     D5             Jejunum D35   Fusobacteriota    0     
##  6 Jejunum_D21 20     D4             Jejunum D21   Fusobacteriota    0.120 
##  7 Jejunum_D21 27     D6             Jejunum D21   Fusobacteriota    0.0855
##  8 Jejunum_D21 26     D6             Jejunum D21   Fusobacteriota    0     
##  9 Jejunum_D21 18     D4             Jejunum D21   Fusobacteriota    0.0846
## 10 Jejunum_D35 7      D1             Jejunum D35   Fusobacteriota    0.0770
## # … with 30 more rows
## 
## $Proteobacteria
## # A tibble: 40 × 7
##    Segment_Age Piglet Slaughter_date Segment Age   phylum         abundance
##    <fct>       <fct>  <chr>          <fct>   <fct> <chr>              <dbl>
##  1 Jejunum_D35 14     D3             Jejunum D35   Proteobacteria     0.123
##  2 Jejunum_D35 23     D5             Jejunum D35   Proteobacteria     0.126
##  3 Jejunum_D35 5      D1             Jejunum D35   Proteobacteria     0.172
##  4 Jejunum_D21 9      D2             Jejunum D21   Proteobacteria     0.176
##  5 Jejunum_D35 24     D5             Jejunum D35   Proteobacteria     0.172
##  6 Jejunum_D21 20     D4             Jejunum D21   Proteobacteria     0.194
##  7 Jejunum_D21 27     D6             Jejunum D21   Proteobacteria     0.141
##  8 Jejunum_D21 26     D6             Jejunum D21   Proteobacteria     0.167
##  9 Jejunum_D21 18     D4             Jejunum D21   Proteobacteria     0.199
## 10 Jejunum_D35 7      D1             Jejunum D35   Proteobacteria     0.218
## # … with 30 more rows
```
…
Pour regrouper les résultats de chaque phylum dans une même table on utilise la function `map_df()` qui crée un directement un data.frame.


```r
result_model <- df_stat |>
  split(df_stat$phylum) |> 
  map(fit_model) |> 
  map_df(broom.mixed::tidy, .id = "phylum")
result_model
```

```
## # A tibble: 49 × 9
##    phylum           effect group term  estimate std.er…¹ stati…²    df   p.value
##    <chr>            <chr>  <chr> <chr>    <dbl>    <dbl>   <dbl> <dbl>     <dbl>
##  1 Actinobacteriota fixed  <NA>  (Int…  0.220    0.0145   15.1    21.7  5.34e-13
##  2 Actinobacteriota fixed  <NA>  Segm… -0.0124   0.00974  -1.27   15.3  2.23e- 1
##  3 Actinobacteriota fixed  <NA>  Age1   0.0130   0.0145    0.896  21.7  3.80e- 1
##  4 Actinobacteriota fixed  <NA>  Segm…  0.00247  0.00974   0.254  15.3  8.03e- 1
##  5 Actinobacteriota ran_p… Pigl… sd__…  0.0527  NA        NA      NA   NA       
##  6 Actinobacteriota ran_p… Slau… sd__…  0       NA        NA      NA   NA       
##  7 Actinobacteriota ran_p… Resi… sd__…  0.0541  NA        NA      NA   NA       
##  8 Bacteroidota     fixed  <NA>  (Int…  0.463    0.0310   15.0    22.6  3.37e-13
##  9 Bacteroidota     fixed  <NA>  Segm… -0.267    0.0115  -23.2    14.4  7.60e-13
## 10 Bacteroidota     fixed  <NA>  Age1   0.0269   0.0310    0.867  22.6  3.95e- 1
## # … with 39 more rows, and abbreviated variable names ¹​std.error, ²​statistic
```
…
## résultats
result_pval <- df_stat |>
  split(df_stat$phylum) |> 
  map(fit_model) |>
  map(p_val) |> 
  map_dfr(tidy, .id = "phylum")
result_pval
```

```
## # A tibble: 28 × 5
##    phylum           term        statistic    df   p.value
##    <chr>            <chr>           <dbl> <dbl>     <dbl>
##  1 Actinobacteriota (Intercept)  229.         1 8.68e- 52
##  2 Actinobacteriota Segment        1.62       1 2.04e-  1
##  3 Actinobacteriota Age            0.803      1 3.70e-  1
##  4 Actinobacteriota Segment:Age    0.0645     1 7.99e-  1
##  5 Bacteroidota     (Intercept)  224.         1 1.52e- 50
##  6 Bacteroidota     Segment      540.         1 2.23e-119
##  7 Bacteroidota     Age            0.752      1 3.86e-  1
##  8 Bacteroidota     Segment:Age    0.172      1 6.79e-  1
##  9 Desulfobacterota (Intercept)  250.         1 2.48e- 56
## 10 Desulfobacterota Segment      168.         1 2.38e- 38
## # … with 18 more rows
```
…
## résultats
result_letters <- df_stat |>
  split(df_stat$phylum) |> 
  map(fit_model) |>
  map(p_letters) |> 
  map_dfr(tidy, .id = "phylum")
result_letters
```

```
## # A tibble: 28 × 9
##    phylum           Segment Age   estimate std.e…¹    df conf.low conf.…² .group
##    <chr>            <chr>   <chr>    <dbl>   <dbl> <dbl>    <dbl>   <dbl> <chr> 
##  1 Actinobacteriota Jejunum D35     0.192   0.0229  6.88  0.115    0.268  " a"  
##  2 Actinobacteriota Colon   D35     0.222   0.0354 15.0   0.121    0.322  " a"  
##  3 Actinobacteriota Jejunum D21     0.223   0.0229  6.74  0.146    0.300  " a"  
##  4 Actinobacteriota Colon   D21     0.243   0.0238  7.58  0.165    0.320  " a"  
##  5 Bacteroidota     Jejunum D35     0.175   0.0464  5.22  0.00242  0.347  " a " 
##  6 Bacteroidota     Jejunum D21     0.219   0.0464  5.17  0.0460   0.392  " a " 
##  7 Bacteroidota     Colon   D35     0.698   0.0562  9.37  0.526    0.871  "  b" 
##  8 Bacteroidota     Colon   D21     0.762   0.0470  5.44  0.590    0.933  "  b" 
##  9 Desulfobacterota Jejunum D21     0.0384  0.0200 10.6  -0.0216   0.0984 " a " 
## 10 Desulfobacterota Jejunum D35     0.0386  0.0200 10.7  -0.0213   0.0985 " a " 
## # … with 18 more rows, and abbreviated variable names ¹​std.error, ²​conf.high
```
…
